…
Como se mencionó anteriormente, primero filtraremos por el idioma español y veremos los juegos más stremeados para este grupo:

```r
    data_twitch_es <- data_twitch %>%
      filter(language == "Spanish")
```
```r
    most_streamed_games_es <- data_twitch_es %>%
      group_by(most_streamed_game) %>%
        summarise(count = n()) %>%
         arrange(desc(count)) %>%
           mutate(percentage = (count / sum(count)) * 100)
```
    ## # A tibble: 27 × 3
    ##    most_streamed_game    count percentage
    ##    <chr>                 <int>      <dbl>
    ##  1 Just Chatting            46      43.4 
    ##  2 Grand Theft Auto V        9       8.49
    ##  3 League of Legends         9       8.49
    ##  4 Sports                    7       6.60
    ##  5 VALORANT                  4       3.77
    ##  6 Minecraft                 3       2.83
    ##  7 Brawl Stars               2       1.89
    ##  8 Call of Duty: Warzone     2       1.89
    ##  9 Counter-Strike            2       1.89
    ## 10 Dead by Daylight          2       1.89
    ## # ℹ 17 more rows
…
A diferencia de los juegos más jugados en la base de datos completa, vemos que en la comunidad de habla hispana cambia un poco. Sin embargo, la categoría de **Just Chatting** sigue siendo el primer lugar, por lo que podemos deducir que a la gente también le llama la atención actividades no sólo relacionadas a los juegos.

A continuación analizaremos la variable de **seguidores ganados por stream** en los juegos más stremeados de la comunidad hispana, de tal forma de ver cuales juegos generan un mayor **engagement** y así tener esta información en consideración.

```r
    followers_per_game_es <- data_twitch_es %>%
                              group_by(most_streamed_game) %>%
                              summarise(mean_followers = mean(followers_gained_per_stream, na.rm = TRUE),
                              count = n()) %>%
                              arrange(desc(mean_followers))
```
    ## # A tibble: 27 × 3
    ##    most_streamed_game    mean_followers count
    ##    <chr>                          <dbl> <int>
    ##  1 Minecraft                      7945.     3
    ##  2 Music                          7380      1
    ##  3 FIFA 21                        7330      1
    ##  4 Warframe                       7040      1
    ##  5 EA Sports FC 24                6534      1
    ##  6 Poker                          5640      1
    ##  7 Talk Shows & Podcasts          5230      1
    ##  8 Counter-Strike                 5168.     2
    ##  9 Just Chatting                  4876     46
    ## 10 Grand Theft Auto V             4795.     9
    ## # ℹ 17 more rows
…
Este gráfico nos muestra la media de seguidores ganados por juego, lo que nos da una idea del nivel promedio de **engagement** para cada juego, sin embargo, esta media puede estar influenciada por valores atípicos, pocas observaciones como lo es en el los casos de categorías como **Music, FIFA 21, Warframe** y aquellos que tienen solo una observación, etc. Para esto analizamos un boxplot:

```r
    followers_per_game_es_full <- data_twitch_es %>%
      select(most_streamed_game, followers_gained_per_stream)
```
    ## # A tibble: 106 × 2
    ##    most_streamed_game followers_gained_per_stream
    ##    <chr>                                    <dbl>
    ##  1 Just Chatting                             8289
    ##  2 Minecraft                                 1326
    ##  3 Just Chatting                             2993
    ##  4 Sports                                   13617
    ##  5 VALORANT                                  1124
    ##  6 Grand Theft Auto V                        4640
    ##  7 Just Chatting                            11592
    ##  8 Grand Theft Auto V                        6163
    ##  9 Just Chatting                            11093
    ## 10 Just Chatting                             9210
    ## # ℹ 96 more rows
…
