…
También se analizan los datos faltantes de nuestra base para decidir que
hacer con ellos. En este caso, podemos ver que solo existe una variable
con **n\_miss** y es la **2ND\_MOST\_STREAMED\_GAME**. Esto tiene
sentido, ya que existen streamers que solo se muestran jugando un juego
y por ende esta variable quedaría sin información. Para efectos de
manipulación de los títulos, los cambiaremos a letras minúsculas y la
variable **2ND\_MOST\_STREAMED\_GAME** será modificada solamente por
letras.Reemplazaremos los valores faltantes de esta variable por la
etiqueta **Sin juego**.

    data_twitch <- rename(data_twitch, SECOND_MOST_STREAMED_GAME = `2ND_MOST_STREAMED_GAME`)

    ## # A tibble: 999 × 17
    ##     RANK NAME       LANGUAGE TYPE        MOST_STREAMED_GAME  SECOND_MOST_STREAMED…¹ AVERAGE_STREAM_DURAT…²
    ##    <dbl> <chr>      <chr>    <chr>       <chr>               <chr>                                   <dbl>
    ##  1     1 kaicenat   English  personality Just Chatting       I'm Only Sleeping                         7.6
    ##  2     2 jynxzi     English  personality Tom Clancy's Rainb… NBA 2K20                                  5.4
    ##  3     3 caedrel    English  personality League of Legends   I'm Only Sleeping                         6.3
    ##  4     4 caseoh_    English  personality NBA 2K23            Just Chatting                             4.6
    ##  5     5 ibai       Spanish  personality Just Chatting       League of Legends                         4.1
    ##  6     6 auronplay  Spanish  personality Minecraft           Just Chatting                             3.7
    ##  7     7 zerator    French   personality World of Warcraft   VALORANT                                  5.1
    ##  8     8 tarik      English  personality VALORANT            Counter-Strike                            7.6
    ##  9     9 riotgames  English  esports     League of Legends   League of Legends: Wi…                    8.5
    ## 10    10 papaplatte German   personality Just Chatting       Minecraft                                 7.6
    ## # ℹ 989 more rows
    ## # ℹ abbreviated names: ¹​SECOND_MOST_STREAMED_GAME, ²​AVERAGE_STREAM_DURATION
    ## # ℹ 10 more variables: FOLLOWERS_GAINED_PER_STREAM <dbl>, AVG_VIEWERS_PER_STREAM <dbl>,
    ## #   AVG_GAMES_PER_STREAM <dbl>, TOTAL_TIME_STREAMED <dbl>, TOTAL_FOLLOWERS <dbl>, TOTAL_VIEWS <dbl>,
    ## #   TOTAL_GAMES_STREAMED <dbl>, ACTIVE_DAYS_PER_WEEK <dbl>, MOST_ACTIVE_DAY <chr>,
    ## #   DAY_WITH_MOST_FOLLOWERS_GAINED <chr>

    names(data_twitch) <- str_to_lower(names(data_twitch))

    data_twitch <- data_twitch %>%
      mutate(second_most_streamed_game = replace_na(second_most_streamed_game, "Sin juego"))

    ## # A tibble: 999 × 17
    ##     rank name       language type        most_streamed_game  second_most_streamed…¹ average_stream_durat…²
    ##    <dbl> <chr>      <chr>    <chr>       <chr>               <chr>                                   <dbl>
    ##  1     1 kaicenat   English  personality Just Chatting       I'm Only Sleeping                         7.6
    ##  2     2 jynxzi     English  personality Tom Clancy's Rainb… NBA 2K20                                  5.4
    ##  3     3 caedrel    English  personality League of Legends   I'm Only Sleeping                         6.3
    ##  4     4 caseoh_    English  personality NBA 2K23            Just Chatting                             4.6
    ##  5     5 ibai       Spanish  personality Just Chatting       League of Legends                         4.1
    ##  6     6 auronplay  Spanish  personality Minecraft           Just Chatting                             3.7
    ##  7     7 zerator    French   personality World of Warcraft   VALORANT                                  5.1
    ##  8     8 tarik      English  personality VALORANT            Counter-Strike                            7.6
    ##  9     9 riotgames  English  esports     League of Legends   League of Legends: Wi…                    8.5
    ## 10    10 papaplatte German   personality Just Chatting       Minecraft                                 7.6
    ## # ℹ 989 more rows
    ## # ℹ abbreviated names: ¹​second_most_streamed_game, ²​average_stream_duration
    ## # ℹ 10 more variables: followers_gained_per_stream <dbl>, avg_viewers_per_stream <dbl>,
    ## #   avg_games_per_stream <dbl>, total_time_streamed <dbl>, total_followers <dbl>, total_views <dbl>,
    ## #   total_games_streamed <dbl>, active_days_per_week <dbl>, most_active_day <chr>,
    ## #   day_with_most_followers_gained <chr>
…
